…
  Primary category the icon belongs to, or `NA` when unclassified
  (character).

- all_classes:

  All matching categories (list-column of character vectors). Only
  present when `primary_only = FALSE`.

## Examples

``` r
# All icons as a classified tibble
fa_icons()
#> # A tibble: 1,881 × 2
#>    icon  primary_class
#>    <chr> <chr>        
#>  1 0     alphanumeric 
#>  2 1     alphanumeric 
#>  3 2     alphanumeric 
#>  4 3     alphanumeric 
#>  5 4     alphanumeric 
#>  6 5     alphanumeric 
#>  7 6     alphanumeric 
#>  8 7     alphanumeric 
#>  9 8     alphanumeric 
#> 10 9     alphanumeric 
#> # ℹ 1,871 more rows
…
# Regex search — all icons starting with "arrow"
fa_icons(query = "^arrow", regex = TRUE)
#> # A tibble: 53 × 2
#>    icon                      primary_class     
#>    <chr>                     <chr>             
#>  1 arrow-down                arrows_directional
#>  2 arrow-down-1-9            arrows_directional
#>  3 arrow-down-9-1            arrows_directional
#>  4 arrow-down-a-z            arrows_directional
#>  5 arrow-down-long           arrows_directional
#>  6 arrow-down-short-wide     arrows_directional
#>  7 arrow-down-up-across-line arrows_directional
#>  8 arrow-down-up-lock        arrows_directional
#>  9 arrow-down-wide-short     arrows_directional
#> 10 arrow-down-z-a            arrows_directional
#> # ℹ 43 more rows
```
