…
------------------------------------------------------------------------

## Listing All Icons

Called with no arguments,
[`fa_icons()`](https://jurjoroa.github.io/ggpop/reference/fa_icons.md)
returns every available Font Awesome icon with its primary semantic
category.

``` r
fa_icons()
```

    # A tibble: 1,881 × 2
       icon  primary_class
       <chr> <chr>
     1 0     alphanumeric
     2 1     alphanumeric
     3 2     alphanumeric
     4 3     alphanumeric
     5 4     alphanumeric
     6 5     alphanumeric
     7 6     alphanumeric
     8 7     alphanumeric
     9 8     alphanumeric
    10 9     alphanumeric
    # ℹ 1,871 more rows
…
------------------------------------------------------------------------

## Searching by Name

Pass a string to `query` to filter icons whose names contain that
substring.

``` r
fa_icons(query = "person")
```

    # A tibble: 48 × 2
       icon                      primary_class
       <chr>                     <chr>
     1 hot-tub-person            people_social
     2 person                    people_users
     3 person-arrow-down-to-line people_users
     4 person-arrow-up-from-line people_users
     5 person-biking             people_users
     6 person-booth              people_users
     7 person-breastfeeding      people_users
     8 person-burst              people_users
     9 person-cane               people_users
    10 person-chalkboard         people_users
    # ℹ 38 more rows
…
------------------------------------------------------------------------

## Regex Search

Set `regex = TRUE` to use a Perl-compatible regular expression instead
of a fixed string.

``` r
# All icons whose name starts with "arrow"
fa_icons(query = "^arrow", regex = TRUE)
```

    # A tibble: 53 × 2
       icon                      primary_class
       <chr>                     <chr>
     1 arrow-down                arrows_directional
     2 arrow-down-1-9            arrows_directional
     3 arrow-down-9-1            arrows_directional
     4 arrow-down-a-z            arrows_directional
     5 arrow-down-long           arrows_directional
     6 arrow-down-short-wide     arrows_directional
     7 arrow-down-up-across-line arrows_directional
     8 arrow-down-up-lock        arrows_directional
     9 arrow-down-wide-short     arrows_directional
    10 arrow-down-z-a            arrows_directional
    # ℹ 43 more rows
…
------------------------------------------------------------------------

## Filtering by Category

Use `category` to return only icons that belong to a semantic group.

``` r
fa_icons(category = "people_users")
```

    # A tibble: 84 × 2
       icon                      primary_class
       <chr>                     <chr>
     1 people-arrows             people_users
     2 people-carry-box          people_users
     3 people-group              people_users
     4 people-line               people_users
     5 people-pulling            people_users
     6 people-robbery            people_users
     7 people-roof               people_users
     8 person                    people_users
     9 person-arrow-down-to-line people_users
    10 person-arrow-up-from-line people_users
    # ℹ 74 more rows

Combine `query` and `category` to narrow results further.

``` r
fa_icons(query = "person", category = "people_users")
```

    # A tibble: 46 × 2
       icon                      primary_class
       <chr>                     <chr>
     1 person                    people_users
     2 person-arrow-down-to-line people_users
     3 person-arrow-up-from-line people_users
     4 person-biking             people_users
     5 person-booth              people_users
     6 person-breastfeeding      people_users
     7 person-burst              people_users
     8 person-cane               people_users
     9 person-chalkboard         people_users
    10 person-circle-check       people_users
    # ℹ 36 more rows
…
------------------------------------------------------------------------

## Hiding Unclassified Icons

Some icons do not match any category. Set `include_unclassified = FALSE`
to drop them.

``` r
fa_icons(query = "user", include_unclassified = FALSE)
```

    # A tibble: 38 × 2
       icon               primary_class
       <chr>              <chr>
     1 building-user      buildings_places
     2 chalkboard-user    people_social
     3 circle-user        shapes_symbols
     4 clipboard-user     office_docs
     5 hospital-user      medical_health
     6 house-chimney-user buildings_places
     7 house-user         buildings_places
     8 user               people_users
     9 user-astronaut     people_users
    10 user-check         people_users
    # ℹ 28 more rows
…
## Using a Custom Class Map

Supply your own named list of `category = regex` pairs to `class_map`
for domain-specific classification.

``` r
my_map <- list(
  health   = "^(heart|lungs|brain|virus|syringe|stethoscope|bandage|dna)(-|$)",
  mobility = "^(wheelchair|person-walking|bicycle|car|bus)(-|$)"
)

fa_icons(class_map = my_map, include_unclassified = FALSE)
```

    # A tibble: 38 × 2
       icon        primary_class
       <chr>       <chr>
     1 bandage     health
     2 bicycle     mobility
     3 brain       health
     4 bus         mobility
     5 bus-simple  mobility
     6 car         mobility
     7 car-battery mobility
     8 car-burst   mobility
     9 car-on      mobility
    10 car-rear    mobility
    # ℹ 28 more rows
…
